Journal (reproducible report)
…
1.2 Data Wrangling

For the challenge first the data wrangling needs to be adapted to separate the location attribute into city and state:

bike_orderlines_wrangled_tbl <- bike_orderlines_wrangled_tbl %>%
# 5.5 Separate Location into State and City
separate(col    = location,
         into   = c("city", "state"),
         sep    = ", " )
bike_orderlines_wrangled_tbl

## # A tibble: 15,644 x 19
##    order_id order_line order_date          model model_year category_1
##       <dbl>      <dbl> <dttm>              <chr>      <dbl> <chr>     
##  1        1          1 2015-01-07 00:00:00 Spec~       2021 Mountain  
##  2        1          2 2015-01-07 00:00:00 Ulti~       2020 Road      
##  3        2          1 2015-01-10 00:00:00 Neur~       2021 Mountain  
##  4        2          2 2015-01-10 00:00:00 Spee~       2019 Road      
##  5        3          1 2015-01-10 00:00:00 Stit~       2020 Mountain  
##  6        3          2 2015-01-10 00:00:00 Road~       2020 Hybrid / ~
##  7        3          3 2015-01-10 00:00:00 Spee~       2020 Road      
##  8        3          4 2015-01-10 00:00:00 Infl~       2021 Road      
##  9        3          5 2015-01-10 00:00:00 Torq~       2020 Mountain  
## 10        4          1 2015-01-11 00:00:00 Ulti~       2020 Road      
## # ... with 15,634 more rows, and 13 more variables: category_2 <chr>,
## #   category_3 <chr>, price <dbl>, quantity <dbl>, total_price <dbl>,
## #   frame_material <chr>, weight <dbl>, url <chr>, bikeshop <chr>, city <chr>,
## #   state <chr>, lat <dbl>, lng <dbl>
…
# Group by State
group_by(year, state) %>%
summarise(sales = sum(total_price)) %>%
ungroup() %>%

# Format $ Text
mutate(sales_text = scales::dollar(sales, big.mark = ".", 
                                   decimal.mark = ",", 
                                   prefix = "", 
                                   suffix = " €"))

sales_by_loc_year_tbl  

## # A tibble: 60 x 4
##     year state                           sales sales_text 
##    <dbl> <chr>                           <dbl> <chr>      
##  1  2015 Baden-Württemberg             1031924 1.031.924 €
##  2  2015 Bavaria                       1301461 1.301.461 €
##  3  2015 Berlin                          95853 95.853 €   
##  4  2015 Bremen                        1395912 1.395.912 €
##  5  2015 Hamburg                        423090 423.090 €  
##  6  2015 Hesse                          308609 308.609 €  
##  7  2015 Lower Saxony                   584386 584.386 €  
##  8  2015 Mecklenburg-Western Pomerania  222003 222.003 €  
##  9  2015 North Rhine-Westphalia        3735092 3.735.092 €
## 10  2015 Saxony                         238371 238.371 €  
## # ... with 50 more rows
…
    # Some categories are listed multiple times.
    # We only need unique values
    distinct(url)
  return (bike_url)
}

bike_data_url <- get_bike_data_url("https://www.radon-bikes.de/en/mountainbike/hardtail/")
bike_data_url

## # A tibble: 31 x 1
##    url                                                                          
##    <glue>                                                                       
##  1 https://www.radon-bikes.de/en/mountainbike/hardtail/jealous/jealous-80-2021/ 
##  2 https://www.radon-bikes.de/en/mountainbike/hardtail/jealous/jealous-90-2021/ 
##  3 https://www.radon-bikes.de/en/mountainbike/hardtail/jealous/jealous-100-2021/
##  4 https://www.radon-bikes.de/en/mountainbike/hardtail/jealous/jealous-100-ea-2~
##  5 https://www.radon-bikes.de/en/mountainbike/hardtail/jealous/jealous-100-2020/
##  6 https://www.radon-bikes.de/en/mountainbike/hardtail/jealous/jealous-100-ea-2~
##  7 https://www.radon-bikes.de/en/mountainbike/hardtail/jealous-al/jealous-al-80~
##  8 https://www.radon-bikes.de/en/mountainbike/hardtail/jealous-al/jealous-al-80~
##  9 https://www.radon-bikes.de/en/mountainbike/hardtail/jealous-al/1x12/         
## 10 https://www.radon-bikes.de/en/mountainbike/hardtail/jealous-al/jealous-al-10~
## # ... with 21 more rows
…
  bike_data_cat_list <- url_per_bike %>% map(get_bike_data, category = category)
  return (bind_rows(bike_data_cat_list))
}

#plan("multiprocess")
radon_bike_lst <- radon_family_tbl %>% pull(url) %>% map(get_bike_data_per_cat)
radon_bike_tbl <- radon_bike_lst %>% bind_rows()

The final data is displayed using saved data of a previous run:

web_scraping_radon_data <- readRDS("H:/Uni/Buiseness Data Science/Repo/WS20_Repo/web_scraping_radon_data.rds")
web_scraping_radon_data

## # A tibble: 110 x 6
##    name     category  available price descr                 url                 
##    <chr>    <chr>     <lgl>     <dbl> <chr>                 <glue>              
##  1 JEALOUS~ mountain~ TRUE       2599 "Racing at an introd~ https://www.radon-b~
##  2 JEALOUS~ mountain~ TRUE       2999 "This year the JEALO~ https://www.radon-b~
##  3 JEALOUS~ mountain~ TRUE       3999 "\"What a bullet\" -~ https://www.radon-b~
##  4 JEALOUS~ mountain~ TRUE       5299 "\"The fastest stall~ https://www.radon-b~
##  5 JEALOUS~ mountain~ TRUE       4699 "World-cup-ready or ~ https://www.radon-b~
##  6 JEALOUS~ mountain~ TRUE       4499 "In the JEALOUS CF 1~ https://www.radon-b~
##  7 JEALOUS~ mountain~ TRUE        999 "For the 2021 model ~ https://www.radon-b~
##  8 JEALOUS~ mountain~ TRUE       1299  <NA>                 https://www.radon-b~
##  9 JEALOUS~ mountain~ TRUE       1499 "A classic reloaded ~ https://www.radon-b~
## 10 JEALOUS~ mountain~ TRUE       1799 "Everything in our J~ https://www.radon-b~
## # ... with 100 more rows
…
